<?xml version="1.0" encoding="iso-8859-1"?>
<!-- Generator: Adobe Illustrator 22.0.1, SVG Export Plug-In . SVG Version: 6.00 Build 0)  -->
<svg version="1.1" id="Layer_1" xmlns="http://www.w3.org/2000/svg" xmlns:xlink="http://www.w3.org/1999/xlink" x="0px" y="0px"
	 viewBox="-945 -582 1354.1 1424.474" style="enable-background:new -945 -582 1354.1 1424.474;" xml:space="preserve">
<g>
	
		<line style="fill:none;stroke:#AEDFF8;stroke-width:14;stroke-miterlimit:10;" x1="236.139" y1="453.474" x2="275.297" y2="453.474"/>
	
		<line style="fill:none;stroke:#AEDFF8;stroke-width:14;stroke-miterlimit:10;" x1="309.981" y1="453.474" x2="349.139" y2="453.474"/>
	
		<line style="fill:none;stroke:#AEDFF8;stroke-width:14;stroke-miterlimit:10;" x1="292.639" y1="396.974" x2="292.639" y2="436.132"/>
	
		<line style="fill:none;stroke:#AEDFF8;stroke-width:14;stroke-miterlimit:10;" x1="292.639" y1="470.816" x2="292.639" y2="509.974"/>
</g>
<g>
	
		<line style="fill:none;stroke:#C8E09B;stroke-width:14;stroke-miterlimit:10;" x1="-909.861" y1="-469.526" x2="-890.109" y2="-469.526"/>
	
		<line style="fill:none;stroke:#C8E09B;stroke-width:14;stroke-miterlimit:10;" x1="-872.613" y1="-469.526" x2="-852.861" y2="-469.526"/>
	
		<line style="fill:none;stroke:#C8E09B;stroke-width:14;stroke-miterlimit:10;" x1="-881.361" y1="-498.026" x2="-881.361" y2="-478.274"/>
	
		<line style="fill:none;stroke:#C8E09B;stroke-width:14;stroke-miterlimit:10;" x1="-881.361" y1="-460.779" x2="-881.361" y2="-441.026"/>
</g>
<g>
	
		<line style="fill:none;stroke:#C792C1;stroke-width:14;stroke-miterlimit:10;" x1="-814.861" y1="670.474" x2="-782.634" y2="670.474"/>
	
		<line style="fill:none;stroke:#C792C1;stroke-width:14;stroke-miterlimit:10;" x1="-754.088" y1="670.474" x2="-721.861" y2="670.474"/>
	
		<line style="fill:none;stroke:#C792C1;stroke-width:14;stroke-miterlimit:10;" x1="-768.361" y1="623.974" x2="-768.361" y2="656.201"/>
	
		<line style="fill:none;stroke:#C792C1;stroke-width:14;stroke-miterlimit:10;" x1="-768.361" y1="684.746" x2="-768.361" y2="716.974"/>
</g>
<circle style="opacity:0.46;fill:none;stroke:#FDB913;stroke-width:14;stroke-miterlimit:10;" cx="356.139" cy="-489.026" r="38"/>
<path style="fill:none;stroke:#F58B74;stroke-width:14;stroke-miterlimit:10;" d="M-818.861,325.974h-69c-3.314,0-6-2.686-6-6v0
	c0-3.314,2.686-6,6-6h69c3.314,0,6,2.686,6,6v0C-812.861,323.287-815.547,325.974-818.861,325.974z"/>
<path style="fill:none;stroke:#C6E09B;stroke-width:14;stroke-miterlimit:10;" d="M352.139,714.974h-69c-3.314,0-6-2.686-6-6l0,0
	c0-3.314,2.686-6,6-6h69c3.314,0,6,2.686,6,6l0,0C358.139,712.287,355.453,714.974,352.139,714.974z"/>
<g>
	<g>
		<path style="fill:#171B30;" d="M231.639,830.974h-981.5v0c0-67.103,54.397-121.5,121.5-121.5h738.5
			C177.242,709.474,231.639,763.871,231.639,830.974L231.639,830.974z"/>
		<path style="fill:#161323;" d="M243.139,842.474h-1004.5v-11.5c0-73.337,59.664-133,133-133h738.5c73.337,0,133,59.663,133,133
			V842.474z M-737.764,819.474h957.307c-5.769-55.27-52.633-98.5-109.403-98.5h-738.5
			C-685.131,720.974-731.996,764.204-737.764,819.474z"/>
	</g>
	<path style="fill:#161323;" d="M392.591-78.343c-0.062-0.001-0.125-0.001-0.188-0.001h0c-9.795,0-17.735,7.139-17.735,15.945
		v-129.612c0,8.806,7.94,15.945,17.735,15.945h0c0.296,0,0.586-0.006,0.906-0.024c8.235-0.466,14.563-7.547,14.238-15.789
		c-4.353-110.388-92.256-202.432-203.212-211.763c-3.871-0.326-9.856,1.502-8.465-6.366c0.961-5.439-0.419-12.078,9.014-11.115
		c7.129,0.728,14.394,0.179,21.597,0.114c15.748-0.141,20.92-5.466,20.609-21.115c-1.5-75.474-65.881-139.409-142.286-139.615
		c-171.182-0.463-342.365-0.177-513.548-0.145c-12.449,0.003-16.849,3.791-19.833,16.195c-1.254,9.437,2.633,15.449,11.814,18.225
		c5.022,1.518,10.2,1.099,15.329,1.099c164.6,0.018,329.2,0.015,493.8,0.004c5.83,0,11.662,0.003,17.483,0.288
		c43.913,2.155,84.944,34.713,97.053,76.957c3.521,12.283,2.61,13.552-10.229,13.553c-309.31,0.015-618.621,0.014-927.931,0
		c-13.407,0-14.336-1.321-10.456-14.198c13.039-43.273,54.338-75.427,99.605-76.278c51.768-0.973,103.556-0.183,155.335-0.325
		c4.79-0.013,9.62,0.328,14.31-1.044c9.128-2.668,13.086-8.554,12.225-18.137c-2.899-12.771-7.252-16.3-20.662-16.311
		c-51.441-0.041-102.883,0.01-154.324-0.042c-11.712-0.012-23.263,1.288-34.674,3.782
		c-63.345,13.845-111.907,73.397-112.206,137.521c-0.064,13.712,5.379,19.352,19.066,19.572c7.2,0.116,14.492,0.752,21.583-0.131
		c9.326-1.161,10.602,3.615,11.144,11.176c0.641,8.933-5.839,5.573-9.676,6.333c-5.698,1.128-11.553,1.433-17.306,2.32
		c-93.794,14.457-173.791,95.666-183.016,189.756c-5.683,57.963-7.443,116.782,1.856,174.431
		c16.635,103.13,59.474,185.145,127.27,246.349c6.669,6.021,17.227,4.974,22.396-2.374c0.039-0.056,0.078-0.111,0.117-0.167l0,0
		c5.827-8.447,4.674-19.348-2.575-24.348l63.888,44.068c-7.249-5-17.848-2.206-23.675,6.241l0,0
		c-0.047,0.069-0.094,0.137-0.14,0.206c-5.571,8.275-2.81,19.57,5.757,24.681c25.98,15.498,54.405,28.935,85.253,40.306
		c51.467,18.972,105.56,22.886,160.06,21.037c8.881-0.301,16.378,1.713,24.062,6.425c31.669,19.417,65.579,33.95,101.572,43.196
		c8.143,2.092,8.679,5.001,6.34,12.364c-18.13,57.062-35.924,114.231-53.439,171.485c-1.904,6.225-4.775,8.596-11.021,9.513
		c-70.01,10.286-120.832,66.536-124.465,137.402c-0.778,15.169,5.163,21.55,20.26,21.563c40.124,0.033,80.251-0.22,120.371,0.16
		c11.439,0.108,18.285-4.219,20.698-15.39c0.294-12.389-2.58-15.628-17.7-19.916c-17.3-1.278-34.634-0.556-51.952-0.872
		c-17.626-0.322-35.279,1.104-52.939-0.721c-1.766-2.153-0.984-4.494-0.453-6.807c10.641-46.365,55.323-81.718,102.768-81.353
		c99.075,0.039,198.178,0.011,297.308-0.017c41.905-0.236,83.458,28.333,97.798,67.475c2.407,6.571,5.903,13.262,2.596,20.689
		c-3.263,1.264-6.726,0.721-10.13,0.721c-90.221,0.008-180.442-0.013-270.663,0.043c-15.431,0.01-30.87-0.507-46.299,0.417
		c-3.312,0.64-6.742,1.296-9.591,2.934c-6.187,3.557-12.3,7.514-9.424,16.424c3.265,12.907,7.115,16.203,19.678,16.206
		c115.951,0.033,231.903,0.039,347.855-0.003c13.252-0.005,19.247-6.416,19.015-19.795
		c-1.192-68.809-55.063-129.935-122.856-138.941c-7.398-0.983-10.686-3.644-13.175-11.044
		c-19.197-57.063-31.151-116.313-52.367-172.726c-2.769-7.363,1.362-7.789,6.136-8.999c31.687-8.029,62.269-19.44,90.013-36.511
		c17.811-10.959,35.633-14.617,56.11-14.1c72.333,1.828,141.188-13.579,204.296-49.122
		c126.68-71.346,199.364-179.521,215.561-324.483c0.28-2.509,0.534-5.02,0.764-7.531C407.387-70.808,400.986-78.264,392.591-78.343z
		 M-714.203,121.835C-774.423,69.379-808.32,3.42-813.368-76.529c-2.203-34.888-2.795-69.972,0.178-104.808
		c4.154-48.688,43.189-87.574,91.676-94.055c7.47-0.999,9.937,1.004,10.925,8.449c10.274,77.404,20.581,154.807,31.516,232.12
		c7.319,51.747,10.407,104.353,30.341,153.688c7.314,18.104,15.195,35.888,25.443,55.142
		C-658.182,161.72-687.954,144.699-714.203,121.835z M271.677-29.495c-23.788,95.742-82.94,161.321-173.479,199.586
		c22.404-41.768,39.638-85.337,46.863-132.047c5.964-38.562,9.166-77.553,13.53-116.36c7.083-62.984,14.175-125.968,21.082-188.971
		c0.751-6.852,2.732-8.987,10.231-7.57c49.632,9.382,85.92,46.558,88.42,96.929C280.781-128.431,283.817-78.358,271.677-29.495z"/>
	<linearGradient id="SVGID_1_" gradientUnits="userSpaceOnUse" x1="-748.3387" y1="-509.243" x2="213.503" y2="-509.243">
		<stop  offset="0" style="stop-color:#FFFFFF"/>
		<stop  offset="1" style="stop-color:#E2E7EA"/>
	</linearGradient>
	<path style="fill:url(#SVGID_1_);" d="M-428.576-565.689c3.458,13.037,7.569,16.096,22.025,16.098
		c168.713,0.019,337.427-0.046,506.14,0.065c54.031,0.036,97.609,32.732,111.555,83.161c0.729,2.636,1.008,5.406,1.849,7.999
		c1.307,4.027,0.156,5.832-4.165,5.537c-2.048-0.14-4.113-0.039-6.171-0.039c-313.423-0.001-626.846-0.001-940.269-0.002
		c-12.021,0-12.021-0.005-9.157-11.504c12.211-49.028,56.468-84.592,107.01-85.031c52.805-0.459,105.616-0.125,158.425-0.179
		c13.588-0.014,17.604-3.126,21.097-15.96C-449.683-565.591-439.129-565.64-428.576-565.689z"/>
	<linearGradient id="SVGID_2_" gradientUnits="userSpaceOnUse" x1="-522.9505" y1="649.3347" x2="-13.8623" y2="649.3347">
		<stop  offset="0" style="stop-color:#FFFFFF"/>
		<stop  offset="1" style="stop-color:#FFFFFF"/>
	</linearGradient>
	<path style="fill:url(#SVGID_2_);" d="M-115.183,593.071c43.557-0.372,93.036,39.411,100.797,81.192
		c0.676,3.639,0.372,7.46,0.523,11.196c-0.722,0.799-1.605,1.066-2.653,0.804c-4.126-1.308-8.235-0.229-12.378,0.068
		c-1.157-0.344-2.307-0.551-3.509-0.627c-101.878-0.124-203.729-0.103-305.543-0.011c-2.92,0.411-5.846,1.013-8.855,1.078
		c-1.353,0.03-2.052,0.761-0.731,0.392c0.049-0.014,0.264,0.566,0.401,0.87c-9.316,1.81-15.757,6.62-17.276,16.563
		c-0.671-0.017-1.305-0.179-1.902-0.485c-8.911-1.913-17.822-1.442-26.733-0.003c-0.897,0.504-1.794,1.008-2.688,1.492
		c-1.297-9.86-6.887-15.635-16.579-17.524c0.571-2.169,0.571-2.169-3.476-2.387c-29.218-0.042-58.391-0.175-87.542,0.05
		c-1.071,0.13-2.141,0.358-3.174,0.681c-4.002-0.554-8.019-1.417-12.048-0.084c-1.465,0.361-2.906,0.557-4.104-0.689
		c-1.361-6.83,2.271-12.608,4.325-18.572c14.53-42.172,57.602-74.37,98.524-74.006c2.86,1.72,6.02,0.966,9.041,0.967
		c95.513,0.042,191.026,0.042,286.539,0C-121.203,594.037-118.043,594.791-115.183,593.071z"/>
	<path style="fill:#FFFFFF;" d="M-393.04,704.109c7.376-5.05,16.756,1.075,24.071-4.315c0.887,1.439,1.774,2.879,2.661,4.318
		C-375.219,704.111-384.129,704.11-393.04,704.109z"/>
	<linearGradient id="SVGID_3_" gradientUnits="userSpaceOnUse" x1="-649.8505" y1="70.2574" x2="163.4965" y2="70.2574">
		<stop  offset="0" style="stop-color:#FFFFFF"/>
		<stop  offset="1" style="stop-color:#E2E7EA"/>
	</linearGradient>
	<path style="fill:url(#SVGID_3_);" d="M163.497-386.535c-3.622,34.069-7.098,68.155-10.897,102.205
		c-7.185,64.381-14.202,128.783-21.965,193.095c-5.829,48.288-6.106,97.634-18.73,144.652
		C70.59,207.303-28.442,303.693-183.155,342.393c-19.324,4.834-23.092,10.519-17.064,29.853c4.687,15.034,9.498,30.032,14.03,45.112
		c2.526,8.405,7.304,13.833,16.535,14.278c0.674,0.033,1.641-0.467,1.996-0.164c8.356,7.149,7.047,18.358,11.33,27.248
		c1.37,2.843,1.89,5.41-1.783,7.8c-8.163,5.311-8.792,12.846-5.908,21.705c6.677,20.511,12.858,41.184,19.227,61.795
		c0.987,3.194,2.772,6.238,1.996,9.953c-65.849,0-131.654,0-197.46,0c-3.899-5.03-0.61-9.883,0.669-14.569
		c18.335-67.133,36.463-134.322,54.701-201.48c3.892-14.333,3.679-14.3-10.36-17.567c-65.981-15.358-127.283-41.003-179.835-84.589
		c-63.361-52.551-101.309-119.905-113.116-201.449c-11.345-78.349-21.656-156.846-32.429-235.277
		c-9.652-70.275-19.006-140.591-28.734-210.856c-0.567-4.099-1.162-8.198,1.445-11.92c3.768-2.54,7.864-1.667,11.936-1.158
		c1.147,0.442,2.151,1.096,3.048,1.941c0.904,0.874,1.907,1.589,3.058,2.111c5.1,1.254,10.27,0.695,15.394,0.695
		c248.653,0.029,497.305,0.026,745.958,0.026c2.744,0,5.488-0.006,8.231,0.004c19.333,0.071,23.994,5.054,23.008,24.647
		C162.661-388.363,163.151-387.488,163.497-386.535z"/>
	<path style="fill:#FFFFFF;" d="M-845.701-188.766c0.391,0.605,0.325,1.156-0.197,1.652c-3.245,7.426-3.004,15.365-3.066,23.169
		c-0.181,22.826-0.06,45.654-0.035,68.482c0.035-23.772-0.008-47.544,0.102-71.315c0.01-2.05-1.355-5.046,2.315-5.796
		c0.118,26.051,0.149,52.102,0.368,78.152c1.221,145.633,99.042,270.464,240.192,306.572c2.985,0.763,5.984,1.472,8.976,2.207
		c7.212,3.458,10.334,10.66,14.957,16.459c13.694,17.177,30.47,31.363,45.522,47.217c2.255,2.375,6.775,4.377,5.262,7.999
		c-1.58,3.782-5.865,1.931-9.229,1.446c-6.373-0.92-12.933,0.97-19.252-1.156c-34.361-4.259-68.554-9.651-100.857-22.666
		c-141.581-57.044-224.624-160.679-247.362-312.029c-1.273-8.471-2.417-16.95-1.639-25.553c1.371-2.047,1.228-4.508,1.849-6.767
		c0.231-36.553,0.232-73.099-0.003-109.641c-0.27-1.803-0.786-3.52-1.866-5.028c2.754-51.168,24.564-93.299,61.776-127.598
		c31.742-29.257,69.777-44.859,112.646-49.16c7.327-0.735,10.88,0.352,11.537,9.026c1.187,15.65,3.562,31.261,6.397,46.712
		c1.272,6.934-0.499,8.955-7.133,9.587c-16.096,1.533-31.521,5.655-45.581,14.006c-10.945,9.394-23.234,16.923-34.979,25.207
		l0.043-0.05c-7.337,7.817-11.579,18.127-20.12,24.974c-10.083,13.528-14.34,29.506-19.049,45.293
		C-845.773-194.705-845.956-191.776-845.701-188.766z"/>
	<path style="fill:#FFFFFF;" d="M375.001-94.485c1.487,54.792-9.308,107.41-33.101,156.425
		C274.206,201.398,162.459,276.412,7.449,286.324c-1.697,0.109-3.408,0.013-4.973,0.013c-1.184-1.82,0.141-2.609,1.083-3.424
		c22.638-19.581,43.335-41.009,61.404-64.897c2.687-3.553,6.006-4.925,10.141-6.155C195.478,176.051,272.22,97.799,303.6-24.129
		c5.481-21.296,7.74-43.142,7.685-65.19c-0.069-27.441,0.098-54.883-0.036-82.324c-0.331-67.743-50.79-125.593-117.866-134.959
		c-6.085-0.85-9.196-2.1-8.151-9.329c2.402-16.614,4.146-33.329,5.816-50.038c0.474-4.734,1.971-6.501,6.965-6.084
		c98.157,8.193,169.347,85.401,176.828,173.658c0.143,1.687-0.102,3.407-0.166,5.112c-2.406,5.577,0.085,11.588-1.524,17.241
		c-0.874,26.199-0.645,52.394-0.124,78.586C373.441-96.305,374.099-95.314,375.001-94.485z"/>
	<path style="fill:#FEFEFE;" d="M-650.305-417.679c3.759,28.854,7.407,57.723,11.3,86.559
		c8.478,62.791,16.984,125.578,25.658,188.342c9.329,67.502,15.769,135.59,29.007,202.324
		c21.835,110.078,90.602,184.103,190.538,231.149c33.338,15.694,68.23,26.809,104.221,34.296c8.174,1.7,8.626,4.55,6.686,11.613
		c-20.044,72.975-39.782,146.033-59.589,219.072c-0.355,1.31-0.521,2.672-0.773,4.009c-15.385,0-30.771,0-47.019,0
		c9.743-31.407,19.344-62.407,28.979-93.397c10.054-32.338,20.19-64.651,30.191-97.005c5.151-16.662,0.945-22.9-15.989-27.156
		c-154.739-38.898-251.853-135.653-287.197-291.361c-10.58-46.608-13.733-94.904-20.223-142.436
		c-11.265-82.504-22.482-165.015-33.714-247.523c-3.42-25.126-6.643-50.282-10.389-75.36c-0.768-5.138,0.137-6.793,5.334-6.641
		c14.036,0.411,28.081,0.51,42.123,0.733C-650.447-419.665-649.431-418.963-650.305-417.679z"/>
	<linearGradient id="SVGID_4_" gradientUnits="userSpaceOnUse" x1="-651.1675" y1="-413.2184" x2="164.415" y2="-413.2184">
		<stop  offset="0" style="stop-color:#FFFFFF"/>
		<stop  offset="1" style="stop-color:#FFFFFF"/>
	</linearGradient>
	<path style="fill:url(#SVGID_4_);" d="M-650.305-417.679c-0.29-0.928-0.579-1.856-0.862-2.783
		c3.406-0.204,6.805-0.591,10.204-0.591c265.191-0.03,530.382-0.03,795.574-0.032c11.162,0,11.162-0.001,7.96,15.735
		c-7.249-11.2-18.488-9.47-29.469-9.466c-250.745,0.081-501.49,0.076-752.234-0.011c-6.353-0.002-13.138,1.711-18.879-2.838
		C-642.11-417.671-646.208-417.675-650.305-417.679z"/>
	<linearGradient id="SVGID_5_" gradientUnits="userSpaceOnUse" x1="-638.0118" y1="-404.2" x2="162.6848" y2="-404.2">
		<stop  offset="0" style="stop-color:#FFFFFF"/>
		<stop  offset="1" style="stop-color:#FFFFFF"/>
	</linearGradient>
	<path style="fill:url(#SVGID_5_);" d="M-638.012-417.666c260.63-0.001,521.261,0.043,781.891-0.183
		c9.866-0.009,18.014-0.034,18.692,12.498c0.245,5.031,0.263,10.035-1.741,14.8c-1.9-4.984-2.377-10.352-4.323-15.357
		c-1.427-3.67-2.999-6.759-7.287-7.467c-5.16-0.341-10.303-0.177-15.442-0.177c-251.928-0.009-503.856,0.002-755.785-0.075
		c-5.355-0.002-11.023,1.461-16.005-1.981C-638.012-416.293-638.012-416.98-638.012-417.666z"/>
	<path style="fill:#161323;" d="M-559.786,286.32c8.841,0,17.683,0,28.445,0c-24.705-22.684-47.769-45.049-65.705-71.964
		c7.55,0.137,10.714,6.539,15.905,11.092c3.692,3.238,2.915,16.657,14.724,10.044c3.153-1.766,7.409,3.651,9.912,7.724
		c-4.14,3.035-5.188-3.585-9.037-2.252c1.675,4.353,4.961,8.289,8.637,9.335c12.215,3.478,16.151,15.192,24.295,22.616
		c0.967,0.881,1.249,3.102,2.188,3.336c12.923,3.212,5.318,7.747,1.185,12.701c-4.842,5.804-4.543,6.01-9.985,0.931
		c-2.26-2.109-5.182-1.202-7.843-1.541C-551.323,287.8-556.035,290.027-559.786,286.32z"/>
	<linearGradient id="SVGID_6_" gradientUnits="userSpaceOnUse" x1="-349.7459" y1="686.5869" x2="-12.2516" y2="686.5869">
		<stop  offset="0" style="stop-color:#FFFFFF"/>
		<stop  offset="1" style="stop-color:#FFFFFF"/>
	</linearGradient>
	<path style="fill:url(#SVGID_6_);" d="M-347.13,688.034c-0.645-0.191-1.398-0.232-1.913-0.603
		c-1.002-0.721-0.983-1.581,0.388-1.676c2.348-0.162,4.712-0.095,7.069-0.125c2.865-1.707,6.024-0.952,9.046-0.953
		c98.256-0.042,196.512-0.042,294.768,0c3.021,0.001,6.181-0.755,9.045,0.954c0.693,0.001,1.385,0.002,2.078,0.002
		c3.427-1.53,6.853-1.536,10.28,0.003c0.836-0.059,1.672-0.117,2.508-0.176c1.646,0.588,2.281,2.059,0.701,2.726
		c-1.766,0.745-4.011,0.445-6.047,0.445c-107.961,0.009-215.922,0.003-323.883-0.029
		C-344.438,688.601-345.784,688.231-347.13,688.034z"/>
	<linearGradient id="SVGID_7_" gradientUnits="userSpaceOnUse" x1="-419.8034" y1="593.7714" x2="-115.1826" y2="593.7714">
		<stop  offset="0" style="stop-color:#FFFFFF"/>
		<stop  offset="1" style="stop-color:#FFFFFF"/>
	</linearGradient>
	<path style="fill:url(#SVGID_7_);" d="M-115.183,593.071c-3.07,3.285-7.079,1.933-10.677,1.936
		c-94.422,0.073-188.845,0.073-283.267,0c-3.598-0.003-7.608,1.35-10.677-1.936c3.738-0.27,7.476-0.775,11.214-0.777
		c94.064-0.043,188.129-0.043,282.193,0C-122.658,592.296-118.921,592.801-115.183,593.071z"/>
	<path style="fill:#161323;" d="M-805-267.583c9.742-11.063,21.397-19.473,34.979-25.207c-0.363,1.61-0.197,4.118-1.171,4.693
		c-10.924,6.445-18.029,15.918-22.439,29.028C-792.112-271.673-799.024-268.88-805-267.583z"/>
	<linearGradient id="SVGID_8_" gradientUnits="userSpaceOnUse" x1="-522.744" y1="686.4726" x2="-409.2741" y2="686.4726">
		<stop  offset="0" style="stop-color:#FFFFFF"/>
		<stop  offset="1" style="stop-color:#FFFFFF"/>
	</linearGradient>
	<path style="fill:url(#SVGID_8_);" d="M-522.653,685.649c1.347-0.006,2.694-0.013,4.041-0.019c3.422-1.527,6.844-1.526,10.266,0
		c0.698-0.001,1.397-0.002,2.095-0.003c20.004-2.186,40.071-0.713,60.105-0.861c11.504-0.085,23.087-1.374,34.549,0.867
		c0.774,0.355,1.548,0.71,2.323,1.065c-1.011,0.46-2.022,0.92-3.033,1.38c-35.516,0.181-71.031,0.366-106.547,0.53
		C-520.828,688.616-523.245,689.015-522.653,685.649z"/>
	<path style="fill:#FFFFFF;" d="M375.001-94.485c-0.777-0.005-1.555-0.011-2.332-0.016c-2.232-24.082-0.434-48.219-0.938-72.326
		c-0.07-3.328-0.878-6.82,0.943-10.008c0.909-5.453-2.018-11.373,2.003-16.447C376.372-160.355,375.916-127.421,375.001-94.485z"/>
	<path style="fill:#161323;" d="M-825.077-242.659c5.063-9.648,11.607-18.104,20.12-24.973c1.767,2.866,1.289,4.858-1.878,6.53
		c-4.122,2.177-5.748,4.944-5.437,10.542C-811.835-242.704-818.726-242.06-825.077-242.659z"/>
	<path style="fill:#161323;" d="M-572.837,229.219c-2.048-1.361-3.676-3.562-2.272-5.032c2.029-2.124,2.568,0.51,2.799,2.048
		C-572.175,227.134-572.622,228.119-572.837,229.219z"/>
	<path style="fill:#FEFEFC;" d="M-555.464-485.348c-26.066,0.002-52.132,0.041-78.198-0.015
		c-12.87-0.028-19.702-5.578-19.768-15.809c-0.066-10.172,6.747-15.954,19.592-15.976c51.789-0.086,103.578,0.009,155.367-0.066
		c8.028-0.012,14.318,2.712,16.964,10.577c2.573,7.648-0.066,13.788-6.317,19.073c-3.154,2.666-6.208,2.168-9.442,2.177
		C-503.332-485.32-529.398-485.35-555.464-485.348z"/>
	<path style="fill:#FEFEFD;" d="M-372.469,656.781c-17.491,0-34.983,0.093-52.473-0.032c-12.313-0.088-19.555-6.304-19.501-16.353
		c0.053-9.993,7.267-16.074,19.675-16.113c34.982-0.109,69.965-0.122,104.948-0.066c13.123,0.021,20.122,6.114,19.878,16.893
		c-0.226,10.009-7.158,15.526-20.052,15.607c-17.491,0.11-34.983,0.027-52.474,0.027
		C-372.469,656.757-372.469,656.769-372.469,656.781z"/>
	<linearGradient id="SVGID_9_" gradientUnits="userSpaceOnUse" x1="-341.5864" y1="684.4987" x2="-28.7276" y2="684.4987">
		<stop  offset="0" style="stop-color:#FFFFFF"/>
		<stop  offset="1" style="stop-color:#FFFFFF"/>
	</linearGradient>
	<path style="fill:url(#SVGID_9_);" d="M-28.728,685.631c-104.286,0-208.573,0-312.859,0c3.036-3.358,7.058-1.987,10.651-1.989
		c97.186-0.073,194.371-0.073,291.557,0C-35.786,683.644-31.763,682.273-28.728,685.631z"/>
	<linearGradient id="SVGID_10_" gradientUnits="userSpaceOnUse" x1="-506.2507" y1="684.6076" x2="-411.5966" y2="684.6076">
		<stop  offset="0" style="stop-color:#FFFFFF"/>
		<stop  offset="1" style="stop-color:#FFFFFF"/>
	</linearGradient>
	<path style="fill:url(#SVGID_10_);" d="M-411.597,685.632c-31.551-0.002-63.103-0.004-94.654-0.006
		c1.685-2.22,4.128-2.039,6.504-2.039c27.216-0.003,54.432-0.002,81.648,0.002C-415.722,683.589-413.28,683.413-411.597,685.632z"/>
	<path style="fill:#FFFFFF;" d="M-16.37,685.636c-3.427-0.001-6.853-0.002-10.28-0.003
		C-23.223,682.585-19.796,682.594-16.37,685.636z"/>
	<path style="fill:#FFFFFF;" d="M-508.346,685.629c-3.422,0-6.844,0-10.266,0C-515.19,682.599-511.768,682.584-508.346,685.629z"/>
	<path style="fill:#FEFEFD;" d="M-551.431-294.798c0.712,14.963-4.357,21.89-13.82,22.932c-8.68,0.956-15.857-4.73-17.402-15.014
		c-4.165-27.727-8.066-55.496-11.703-83.297c-1.224-9.355,5.198-17.217,13.927-18.467c8.751-1.254,16.094,4.484,18.202,14.264
		c0.215,0.998,0.19,2.045,0.329,3.061C-558.242-344.558-554.579-317.8-551.431-294.798z"/>
	<linearGradient id="SVGID_11_" gradientUnits="userSpaceOnUse" x1="-638.0118" y1="-414.7179" x2="152.4213" y2="-414.7179">
		<stop  offset="0" style="stop-color:#FFFFFF"/>
		<stop  offset="1" style="stop-color:#FFFFFF"/>
	</linearGradient>
	<path style="fill:url(#SVGID_11_);" d="M152.421-413.56c-263.477,0.003-526.954,0.006-790.431,0.009
		c-0.001-0.685-0.002-1.371-0.003-2.056c259.577-0.002,519.154-0.011,778.731,0.065C144.641-415.541,149.022-417.104,152.421-413.56
		z"/>
	<path style="fill:#FFFFFF;" d="M327.379-130.519c-0.008-15.417-0.131-30.836,0.032-46.251c0.124-11.719,6.042-18.474,15.908-18.717
		c9.941-0.244,16.632,6.245,16.751,17.948c0.318,31.173,0.237,62.354-0.024,93.529c-0.087,10.325-7.016,16.544-17.028,16.496
		c-8.929-0.043-15.379-6.621-15.559-16.755C327.185-99.681,327.387-115.102,327.379-130.519z"/>
	<path style="fill:#FFFFFF;" d="M313.277-78.727c0-34.535,0-69.07,0-103.605c0.34-0.003,0.679-0.006,1.019-0.008
		c0,34.678,0,69.355,0,104.033C313.956-78.447,313.616-78.587,313.277-78.727z"/>
	<path style="fill:#FFFFFF;" d="M372.673-176.836c-0.002,27.445-0.003,54.89-0.005,82.335c-0.576-0.817-1.653-1.633-1.656-2.452
		c-0.088-25.811-0.087-51.622,0.002-77.432C371.018-175.204,372.096-176.019,372.673-176.836z"/>
	<path style="fill:#FFFFFF;" d="M-96.526-437.205L-96.526-437.205c0-8.806,7.139-15.945,15.945-15.945h-59.612
		c8.806,0,15.945,7.139,15.945,15.945v0c0,8.806-7.139,15.945-15.945,15.945h59.612C-89.387-421.26-96.526-428.399-96.526-437.205z"
		/>
	<path style="fill:#FFFFFF;" d="M-669.223-79.468L-669.223-79.468c8.958-1.217,17.196,4.869,18.402,13.593l-15.004-108.598
		c1.205,8.724-5.079,16.784-14.037,18.001l0,0c-8.958,1.217-17.196-4.869-18.402-13.593l15.004,108.597
		C-684.465-70.192-678.18-78.251-669.223-79.468z"/>
	<circle style="fill:#161323;" cx="-673.861" cy="-114.026" r="16"/>
	<path style="fill:#161323;" d="M392.62-98.026L392.62-98.026c-9.102,0-16.48-7.379-16.48-16.48v-18.039
		c0-9.102,7.379-16.48,16.48-16.48h0c9.102,0,16.48,7.379,16.48,16.48v18.039C409.1-105.405,401.722-98.026,392.62-98.026z"/>
	<path style="fill:#FEFEFD;" d="M-553.053-205.317L-553.053-205.317c-8.244,1.44-16.094-4.075-17.533-12.319l-3.905-22.357
		c-1.44-8.244,4.076-16.094,12.319-17.533h0c8.244-1.44,16.094,4.075,17.533,12.319l3.905,22.357
		C-539.294-214.607-544.81-206.757-553.053-205.317z"/>
	<g>
		<path style="fill:#1E2735;" d="M-206.227-17.27l-40.442-20.986c-2.284-1.185-5.005-1.171-7.277,0.039l-40.215,21.418
			c-5.72,3.046-12.45-1.788-11.389-8.182l7.461-44.948c0.421-2.539-0.433-5.122-2.286-6.909l-32.797-31.628
			c-4.665-4.499-2.146-12.393,4.262-13.36l45.054-6.793c2.545-0.384,4.738-1.995,5.864-4.309l19.945-40.966
			c2.837-5.827,11.124-5.871,14.023-0.075l20.383,40.749c1.151,2.302,3.361,3.889,5.91,4.246l45.124,6.31
			c6.418,0.898,9.021,8.765,4.405,13.313l-32.456,31.978c-1.833,1.806-2.66,4.399-2.212,6.933l7.943,44.866
			C-193.797-19.192-200.475-14.285-206.227-17.27z"/>
		<path style="fill:#161323;" d="M-195.011,75.068L-195.011,75.068c-5.407-3.122-7.26-10.036-4.138-15.444l2.415-4.183
			c3.122-5.407,10.036-7.26,15.444-4.138l0,0c5.407,3.122,7.26,10.036,4.138,15.444l-2.415,4.183
			C-182.689,76.337-189.604,78.19-195.011,75.068z"/>
		<g>
			<path style="fill:#161323;" d="M-208.589,35.54l-22.11-11.623c-10.747-5.649-23.579-5.651-34.325,0l-80.122,42.121
				c-4.411,2.317-8.009,0.299-9.352-0.676c-1.343-0.976-4.375-3.775-3.533-8.687l15.302-89.216
				c2.052-11.966-1.913-24.169-10.607-32.645l-64.819-63.183c-3.568-3.478-2.76-7.525-2.247-9.104
				c0.513-1.579,2.238-5.328,7.169-6.045l89.578-13.016c12.015-1.746,22.396-9.289,27.769-20.176l8.424-17.07
				c2.091-4.237,2.192-9.283-0.086-13.422c-1.345-2.444-3.38-4.468-6.003-5.735l0,0c-4.043-1.952-8.622-1.688-12.546,0.306
				c-2.985,1.517-5.303,4.087-6.784,7.089l-8.114,16.44c-1.293,2.622-3.793,4.438-6.687,4.858l-89.578,13.016
				c-13.994,2.034-25.402,11.652-29.772,25.102c-4.37,13.449-0.793,27.936,9.333,37.807l64.819,63.182
				c2.094,2.042,3.049,4.98,2.555,7.862l-15.302,89.215c-2.391,13.938,3.231,27.76,14.672,36.072
				c6.465,4.697,14.028,7.083,21.643,7.083c5.861,0,11.753-1.414,17.197-4.276l80.071-42.094c2.619-1.377,5.748-1.377,8.367,0
				l20.896,10.986c3.63,1.909,7.89,2.487,11.803,1.258c3.52-1.106,6.56-3.453,8.374-6.849l0,0c0.637-1.192,1.082-2.438,1.346-3.707
				C-200.009,44.431-203.179,38.384-208.589,35.54z"/>
			<path style="fill:#161323;" d="M-58.023-108.316c10.126-9.871,13.703-24.357,9.333-37.807
				c-4.37-13.449-15.778-23.067-29.773-25.102l-89.578-13.016c-2.893-0.421-5.393-2.236-6.687-4.859l-39.723-80.488
				c-6.519-13.209-20.081-21.756-34.802-21.215c-13.577,0.499-25.628,8.269-31.68,20.532l-11.869,24.049
				c-2.089,4.234-2.187,9.276,0.094,13.41c1.345,2.437,3.376,4.455,5.994,5.719l0,0c5.065,2.446,10.974,1.413,15.378-2.143
				c1.569-1.267,2.805-2.899,3.698-4.708l11.813-23.935c2.205-4.469,6.304-4.95,7.964-4.95s5.759,0.481,7.964,4.95l40.06,81.17
				c5.374,10.888,15.754,18.431,27.77,20.177l89.577,13.016c4.932,0.717,6.657,4.466,7.17,6.045
				c0.513,1.578,1.321,5.626-2.247,9.104l-64.82,63.184c-8.694,8.475-12.659,20.678-10.606,32.644l15.302,89.217
				c0.842,4.91-2.19,7.71-3.533,8.686s-4.941,2.994-9.353,0.676l-0.447-0.235c-3.871-2.035-8.503-2.389-12.491-0.595
				c-2.799,1.259-5.176,3.366-6.693,6.208l0,0c-1.849,3.463-2.081,7.38-0.969,10.979c1.084,3.507,3.651,6.366,6.9,8.074h0
				c13.039,6.854,29.036,5.796,40.626-3.296c10.689-8.384,15.869-21.752,13.557-35.229l-15.302-89.216
				c-0.494-2.882,0.461-5.82,2.554-7.861L-58.023-108.316z"/>
		</g>
	</g>
	<g>
		<line style="fill:#161323;" x1="-623.29" y1="830.974" x2="292.639" y2="830.974"/>
		<path style="fill:#161323;" d="M281.139,842.474H-623.29v-23h904.429c6.351,0,11.5,5.149,11.5,11.5v0
			C292.639,837.325,287.49,842.474,281.139,842.474z"/>
	</g>
	<g>
		<line style="fill:#161323;" x1="315.639" y1="830.474" x2="360.639" y2="830.474"/>
		<path style="fill:#161323;" d="M349.139,841.974h-22c-6.351,0-11.5-5.149-11.5-11.5v0c0-6.351,5.149-11.5,11.5-11.5h22
			c6.351,0,11.5,5.149,11.5,11.5v0C360.639,836.825,355.49,841.974,349.139,841.974z"/>
	</g>
</g>
</svg>
